cohort_group_type,cohort_group_value,cohort_day,paid_account,trial_accounts
Account Status,,2012-05-09,0,3
Account Status,,2012-05-10,0,3
Account Status,,2012-05-11,0,3
Account Status,,2012-05-12,0,3
Account Status,,2012-05-13,0,3
Account Status,,2012-05-14,0,601
Account Status,,2012-05-15,0,625
Account Status,,2012-05-16,0,690
Account Status,,2012-05-17,0,724
Account Status,,2012-05-18,0,740
Account Status,,2012-05-19,0,746
Account Status,,2012-05-20,0,755
Account Status,,2012-05-21,0,779
Account Status,,2012-05-22,0,802
Account Status,,2012-05-23,0,825
Account Status,,2012-05-24,0,850
Account Status,,2012-05-25,0,862
Account Status,,2012-05-26,0,872
Account Status,,2012-05-27,0,885
Account Status,,2012-05-28,0,897
Account Status,,2012-05-29,0,920
Account Status,,2012-05-30,0,947
Account Status,,2012-05-31,0,963
Account Status,,2012-06-01,0,975
Account Status,,2012-06-02,0,984
Account Status,,2012-06-03,0,994
Account Status,,2012-06-04,0,1010
Account Status,,2012-06-05,0,1026
Account Status,,2012-06-06,0,1040
Account Status,,2012-06-07,0,1085
Account Status,,2012-06-08,0,1100
Account Status,,2012-06-09,0,1107
Account Status,,2012-06-10,0,1116
Account Status,,2012-06-11,0,1137
Account Status,,2012-06-12,0,1156
Account Status,,2012-06-13,0,1176
Account Status,,2012-06-14,0,1213
Account Status,,2012-06-15,0,1230
Account Status,,2012-06-16,0,1234
Account Status,,2012-06-17,0,1244
Account Status,,2012-06-18,0,1268
Account Status,,2012-06-19,0,1282
Account Status,,2012-06-20,0,1292
Account Status,,2012-06-21,0,1318
Account Status,,2012-06-22,0,1325
Account Status,,2012-06-23,0,1330
Account Status,,2012-06-24,0,1337
Account Status,,2012-06-25,0,1355
Account Status,,2012-06-26,0,1371
Account Status,,2012-06-27,0,1392
Account Status,,2012-06-28,0,1410
Account Status,,2012-06-29,0,1421
Account Status,,2012-06-30,0,1428
Account Status,,2012-07-01,0,1433
Account Status,,2012-07-02,0,1451
Account Status,,2012-07-03,0,1469
Account Status,,2012-07-04,0,1481
Account Status,,2012-07-05,0,1501
Account Status,,2012-07-06,0,1513
Account Status,,2012-07-07,0,1520
Account Status,,2012-07-08,0,1527
Account Status,,2012-07-09,0,1542
Account Status,,2012-07-10,0,1553
Account Status,,2012-07-11,0,1571
Account Status,,2012-07-12,0,1586
Account Status,,2012-07-13,0,1595
Account Status,,2012-07-14,0,1603
Account Status,,2012-07-15,0,1609
Account Status,,2012-07-16,0,1621
Account Status,,2012-07-17,0,1641
Account Status,,2012-07-18,0,1659
Account Status,,2012-07-19,0,1675
Account Status,,2012-07-20,0,1691
Account Status,,2012-07-21,0,1696
Account Status,,2012-07-22,0,1703
Account Status,,2012-07-23,0,1717
Account Status,,2012-07-24,0,1736
Account Status,,2012-07-25,0,1760
Account Status,,2012-07-26,0,1775
Account Status,,2012-07-27,0,1787
Account Status,,2012-07-28,0,1791
Account Status,,2012-07-29,0,1798
Account Status,,2012-07-30,0,1812
Account Status,,2012-07-31,0,1829
Account Status,,2012-08-01,0,1843
Account Status,,2012-08-02,0,1862
Account Status,,2012-08-03,0,1872
Account Status,,2012-08-04,0,1877
Account Status,,2012-08-05,0,1886
Account Status,,2012-08-06,0,1900
Account Status,,2012-08-07,0,1915
Account Status,,2012-08-08,0,1934
Account Status,,2012-08-09,0,1950
Account Status,,2012-08-10,0,1966
Account Status,,2012-08-11,0,1968
Account Status,,2012-08-12,0,1979
Account Status,,2012-08-13,0,1986
Account Status,,2012-08-14,0,1994
Account Status,,2012-08-15,0,2011
Account Status,,2012-08-16,0,2027
Account Status,,2012-08-17,0,2032
Account Status,,2012-08-18,0,2035
Account Status,,2012-08-19,0,2049
Account Status,,2012-08-20,0,2061
Account Status,,2012-08-21,0,2076
Account Status,,2012-08-22,0,2089
Account Status,,2012-08-23,0,2106
Account Status,,2012-08-24,0,2120
Account Status,,2012-08-25,0,2126
Account Status,,2012-08-26,0,2135
Account Status,,2012-08-27,0,2151
Account Status,,2012-08-28,0,2169
Account Status,,2012-08-29,0,2186
Account Status,,2012-08-30,0,2196
Account Status,,2012-08-31,0,2208
Account Status,,2012-09-01,0,2215
Account Status,,2012-09-02,0,2222
Account Status,,2012-09-03,0,2231
Account Status,,2012-09-04,0,2256
Account Status,,2012-09-05,0,2264
Account Status,,2012-09-06,0,2277
Account Status,,2012-09-07,0,2284
Account Status,,2012-09-08,0,2288
Account Status,,2012-09-09,0,2289
Account Status,,2012-09-10,0,2304
Account Status,,2012-09-11,0,2318
Account Status,,2012-09-12,0,2331
Account Status,,2012-09-13,0,2343
Account Status,,2012-09-14,0,2356
Account Status,,2012-09-15,0,2359
Account Status,,2012-09-16,0,2363
Account Status,,2012-09-17,0,2377
Account Status,,2012-09-18,0,2388
Account Status,,2012-09-19,0,2407
Account Status,,2012-09-20,0,2414
Account Status,,2012-09-21,0,2423
Account Status,,2012-09-22,0,2424
Account Status,,2012-09-23,0,2431
Account Status,,2012-09-24,0,2445
Account Status,,2012-09-25,0,2464
Account Status,,2012-09-26,0,2480
Account Status,,2012-09-27,0,2500
Account Status,,2012-09-28,0,2511
Account Status,,2012-09-29,0,2514
Account Status,,2012-09-30,0,2519
Account Status,,2012-10-01,0,2539
Account Status,,2012-10-02,0,2547
Account Status,,2012-10-03,0,2558
Account Status,,2012-10-04,0,2567
Account Status,,2012-10-05,0,2575
Account Status,,2012-10-06,0,2576
Account Status,,2012-10-07,0,2584
Account Status,,2012-10-08,0,2591
Account Status,,2012-10-09,0,2602
Account Status,,2012-10-10,0,2618
Account Status,,2012-10-11,0,2631
Account Status,,2012-10-12,0,2637
Account Status,,2012-10-13,0,2643
Account Status,,2012-10-14,0,2645
Account Status,,2012-10-15,0,2663
Account Status,,2012-10-16,0,2673
Account Status,,2012-10-17,0,2682
Account Status,,2012-10-18,0,2696
Account Status,,2012-10-19,0,2705
Account Status,,2012-10-20,0,2711
Account Status,,2012-10-21,0,2720
Account Status,,2012-10-22,0,2732
Account Status,,2012-10-23,0,2747
Account Status,,2012-10-24,0,2756
Account Status,,2012-10-25,0,2768
Account Status,,2012-10-26,0,2775
Account Status,,2012-10-27,0,2780
Account Status,,2012-10-28,0,2787
Account Status,,2012-10-29,0,2806
Account Status,,2012-10-30,0,2816
Account Status,,2012-10-31,0,2828
Account Status,,2012-11-01,0,2845
Account Status,,2012-11-02,0,2853
Account Status,,2012-11-03,0,2861
Account Status,,2012-11-04,0,2865
Account Status,,2012-11-05,0,2872
Account Status,,2012-11-06,0,2889
Account Status,,2012-11-07,0,2895
Account Status,,2012-11-08,0,2905
Account Status,,2012-11-09,0,2917
Account Status,,2012-11-10,0,2923
Account Status,,2012-11-11,0,2927
Account Status,,2012-11-12,0,2945
Account Status,,2012-11-13,0,2961
Account Status,,2012-11-14,0,2975
Account Status,,2012-11-15,0,2988
Account Status,,2012-11-16,0,2996
Account Status,,2012-11-17,0,2999
Account Status,,2012-11-18,0,3004
Account Status,,2012-11-19,0,3013
Account Status,,2012-11-20,0,3022
Account Status,,2012-11-21,0,3032
Account Status,,2012-11-22,0,3040
Account Status,,2012-11-23,0,3045
Account Status,,2012-11-24,0,3051
Account Status,,2012-11-25,0,3053
Account Status,,2012-11-26,0,3063
Account Status,,2012-11-27,0,3103
Account Status,,2012-11-28,0,3115
Account Status,,2012-11-29,0,3125
Account Status,,2012-11-30,0,3131
Account Status,,2012-12-01,0,3138
Account Status,,2012-12-02,0,3143
Account Status,,2012-12-03,0,3154
Account Status,,2012-12-04,0,3176
Account Status,,2012-12-05,0,3194
Account Status,,2012-12-06,0,3203
Account Status,,2012-12-07,0,3209
Account Status,,2012-12-08,0,3213
Account Status,,2012-12-09,0,3220
Account Status,,2012-12-10,0,3229
Account Status,,2012-12-11,0,3243
Account Status,,2012-12-12,0,3251
Account Status,,2012-12-13,0,3261
Account Status,,2012-12-14,0,3268
Account Status,,2012-12-15,0,3274
Account Status,,2012-12-16,0,3282
Account Status,,2012-12-17,0,3286
Account Status,,2012-12-18,0,3301
Account Status,,2012-12-19,0,3312
Account Status,,2012-12-20,0,3318
Account Status,,2012-12-21,0,3328
Account Status,,2012-12-22,0,3335
Account Status,,2012-12-23,0,3338
Account Status,,2012-12-24,0,3342
Account Status,,2012-12-25,0,3345
Account Status,,2012-12-26,0,3352
Account Status,,2012-12-27,0,3362
Account Status,,2012-12-28,0,3371
Account Status,,2012-12-29,0,3372
Account Status,,2012-12-30,0,3374
Account Status,,2012-12-31,0,3379
Account Status,,2013-01-01,0,3383
Account Status,,2013-01-02,0,3394
Account Status,,2013-01-03,0,3413
Account Status,,2013-01-04,0,3425
Account Status,,2013-01-05,0,3433
Account Status,,2013-01-06,0,3439
Account Status,,2013-01-07,0,3449
Account Status,,2013-01-08,0,3463
Account Status,,2013-01-09,0,3476
Account Status,,2013-01-10,0,3490
Account Status,,2013-01-11,0,3500
Account Status,,2013-01-12,0,3506
Account Status,,2013-01-13,0,3510
Account Status,,2013-01-14,0,3519
Account Status,,2013-01-15,0,3533
Account Status,,2013-01-16,0,3547
Account Status,,2013-01-17,0,3567
Account Status,,2013-01-18,0,3580
Account Status,,2013-01-19,0,3585
Account Status,,2013-01-20,0,3591
Account Status,,2013-01-21,0,3609
Account Status,,2013-01-22,0,3617
Account Status,,2013-01-23,0,3635
Account Status,,2013-01-24,0,2065
Account Status,,2013-01-25,0,3665
Account Status,,2013-01-26,0,3671
Account Status,,2013-01-27,0,3675
Account Status,,2013-01-28,0,3692
Account Status,,2013-01-29,0,3709
Account Status,,2013-01-30,0,3728
Account Status,,2013-01-31,0,3744
Account Status,,2013-02-01,0,3754
Account Status,,2013-02-02,0,3764
Account Status,,2013-02-03,0,3774
Account Status,,2013-02-04,0,3792
Account Status,,2013-02-05,0,3808
Account Status,,2013-02-06,0,3830
Account Status,,2013-02-07,0,3845
Account Status,,2013-02-08,0,3861
Account Status,,2013-02-09,0,3866
Account Status,,2013-02-10,0,3872
Account Status,,2013-02-11,0,3881
Account Status,,2013-02-12,0,3896
Account Status,,2013-02-13,0,3903
Account Status,,2013-02-14,0,3912
Account Status,,2013-02-15,0,3926
Account Status,,2013-02-16,0,3931
Account Status,,2013-02-17,0,3934
Account Status,,2013-02-18,0,3948
Account Status,,2013-02-19,0,3962
Account Status,,2013-02-20,0,3972
Account Status,,2013-02-21,0,3985
Account Status,,2013-02-22,0,4002
Account Status,,2013-02-23,0,4009
Account Status,,2013-02-24,0,4018
Account Status,,2013-02-25,0,4031
Account Status,,2013-02-26,0,4049
Account Status,,2013-02-27,0,4067
Account Status,,2013-02-28,0,4082
Account Status,,2013-03-01,0,4096
Account Status,,2013-03-02,0,4108
Account Status,,2013-03-03,0,4114
Account Status,,2013-03-04,0,4129
Account Status,,2013-03-05,0,4136
Account Status,,2013-03-06,0,4146
Account Status,,2013-03-07,0,4161
Account Status,,2013-03-08,0,4170
Account Status,,2013-03-09,0,4180
Account Status,,2013-03-10,0,4186
Account Status,,2013-03-11,0,4196
Account Status,,2013-03-12,0,4206
Account Status,,2013-03-13,0,4215
Account Status,,2013-03-14,0,4225
Account Status,,2013-03-15,0,4233
Account Status,,2013-03-16,0,4241
Account Status,,2013-03-17,0,4249
Account Status,,2013-03-18,0,4262
Account Status,,2013-03-19,0,4288
Account Status,,2013-03-20,0,4300
Account Status,,2013-03-21,0,4315
Account Status,,2013-03-22,0,4326
Account Status,,2013-03-23,0,4330
Account Status,,2013-03-24,0,4334
Account Status,,2013-03-25,0,4349
Account Status,,2013-03-26,0,4356
Account Status,,2013-03-27,0,4362
Account Status,,2013-03-28,0,4371
Account Status,,2013-03-29,0,4377
Account Status,,2013-03-30,0,4382
Account Status,,2013-03-31,0,4385
Account Status,,2013-04-01,0,4399
Account Status,,2013-04-02,0,4415
Account Status,,2013-04-03,0,4428
Account Status,,2013-04-04,0,4437
Account Status,,2013-04-05,0,4449
Account Status,,2013-04-06,0,4450
Account Status,,2013-04-07,0,4457
Account Status,,2013-04-08,0,4468
Account Status,,2013-04-09,0,4481
Account Status,,2013-04-10,0,4497
Account Status,,2013-04-11,0,4507
Account Status,,2013-04-12,0,4515
Account Status,,2013-04-13,0,4519
Account Status,,2013-04-14,0,4521
Account Status,,2013-04-15,0,4534
Account Status,,2013-04-16,0,4544
Account Status,,2013-04-17,0,4558
Account Status,,2013-04-18,0,4567
Account Status,,2013-04-19,0,4576
Account Status,,2013-04-20,0,4582
Account Status,,2013-04-21,0,4590
Account Status,,2013-04-22,0,4601
Account Status,,2013-04-23,0,4607
Account Status,,2013-04-24,0,4614
Account Status,,2013-04-25,0,4627
Account Status,,2013-04-26,0,4638
Account Status,,2013-04-27,0,4644
Account Status,,2013-04-28,0,4651
Account Status,,2013-04-29,0,4666
Account Status,,2013-04-30,0,4677
Account Status,,2013-05-01,0,4698
Account Status,,2013-05-02,0,4715
Account Status,,2013-05-03,0,4727
Account Status,,2013-05-04,0,4733
Account Status,,2013-05-05,0,4736
Account Status,,2013-05-06,0,4757
Account Status,,2013-05-07,0,4768
Account Status,,2013-05-08,0,4778
Account Status,,2013-05-09,0,4784
Account Status,,2013-05-10,0,4793
Account Status,,2013-05-11,0,4797
Account Status,,2013-05-12,0,4800
Account Status,,2013-05-13,0,4812
Account Status,,2013-05-14,0,4826
Account Status,,2013-05-15,0,4834
Account Status,,2013-05-16,0,4848
Account Status,,2013-05-17,0,4853
Account Status,,2013-05-18,0,4856
Account Status,,2013-05-19,0,4859
Account Status,,2013-05-20,0,4870
Account Status,,2013-05-21,0,4878
Account Status,,2013-05-22,0,4888
Account Status,,2013-05-23,0,4902
Account Status,,2013-05-24,0,4912
Account Status,,2013-05-25,0,4918
Account Status,,2013-05-26,0,4922
Account Status,,2013-05-27,0,4926
Account Status,,2013-05-28,0,4941
Account Status,,2013-05-29,0,4951
Account Status,,2013-05-30,0,4963
Account Status,,2013-05-31,0,4970
Account Status,,2013-06-01,0,4976
Account Status,,2013-06-02,0,4983
Account Status,,2013-06-03,0,4994
Account Status,,2013-06-04,0,5008
Account Status,,2013-06-05,0,5012
Account Status,,2013-06-06,0,5023
Account Status,,2013-06-07,0,5032
Account Status,,2013-06-08,0,5037
Account Status,,2013-06-09,0,5038
Account Status,,2013-06-10,0,5048
Account Status,,2013-06-11,0,5053
Account Status,,2013-06-12,0,5065
Account Status,,2013-06-13,0,5072
Account Status,,2013-06-14,0,5083
Account Status,,2013-06-15,0,5088
Account Status,,2013-06-16,0,5091
Account Status,,2013-06-17,0,5108
Account Status,,2013-06-18,0,5114
Account Status,,2013-06-19,0,5123
Account Status,,2013-06-20,0,5135
Account Status,,2013-06-21,0,5141
Account Status,,2013-06-22,0,5145
Account Status,,2013-06-23,0,5148
Account Status,,2013-06-24,0,5156
Account Status,,2013-06-25,0,5170
Account Status,,2013-06-26,0,5179
Account Status,,2013-06-27,0,5183
Account Status,,2013-06-28,0,5192
Account Status,,2013-06-29,0,5197
Account Status,,2013-06-30,0,5202
Account Status,,2013-07-01,0,5215
Account Status,,2013-07-02,0,5225
Account Status,,2013-07-03,0,5239
Account Status,,2013-07-04,0,5250
Account Status,,2013-07-05,0,5260
Account Status,,2013-07-06,0,5265
Account Status,,2013-07-07,0,5272
Account Status,,2013-07-08,0,5282
Account Status,,2013-07-09,0,5290
Account Status,,2013-07-10,0,5303
Account Status,,2013-07-11,0,5311
Account Status,,2013-07-12,0,5317
Account Status,,2013-07-13,0,5319
Account Status,,2013-07-14,0,5323
Account Status,,2013-07-15,0,5329
Account Status,,2013-07-16,0,5338
Account Status,,2013-07-17,0,5349
Account Status,,2013-07-18,0,5360
Account Status,,2013-07-19,0,5365
Account Status,,2013-07-20,0,5366
Account Status,,2013-07-21,0,5370
Account Status,,2013-07-22,0,5386
Account Status,,2013-07-23,0,5398
Account Status,,2013-07-24,0,5405
Account Status,,2013-07-25,0,5410
Account Status,,2013-07-26,0,5421
Account Status,,2013-07-27,0,5424
Account Status,,2013-07-28,0,5434
Account Status,,2013-07-29,29,5416
Account Status,,2013-07-30,29,5420
Account Status,,2013-07-31,29,5433
Account Status,,2013-08-01,29,5443
Account Status,,2013-08-02,29,5453
Account Status,,2013-08-03,29,5457
Account Status,,2013-08-04,29,5461
Account Status,,2013-08-05,29,5469
Account Status,,2013-08-06,30,5477
Account Status,,2013-08-07,30,5487
Account Status,,2013-08-08,30,5497
Account Status,,2013-08-09,30,5505
Account Status,,2013-08-10,30,5511
Account Status,,2013-08-11,30,5514
Account Status,,2013-08-12,30,5525
Account Status,,2013-08-13,30,5535
Account Status,,2013-08-14,30,5539
Account Status,,2013-08-15,30,5545
Account Status,,2013-08-16,30,5552
Account Status,,2013-08-17,30,5557
Account Status,,2013-08-18,30,5560
Account Status,,2013-08-19,30,5571
Account Status,,2013-08-20,30,5580
Account Status,,2013-08-21,30,5586
Account Status,,2013-08-22,30,5594
Account Status,,2013-08-23,31,5602
Account Status,,2013-08-24,31,5605
Account Status,,2013-08-25,31,5608
Account Status,,2013-08-26,32,5613
Account Status,,2013-08-27,32,5623
Account Status,,2013-08-28,32,5636
Account Status,,2013-08-29,32,5646
Account Status,,2013-08-30,32,5654
Account Status,,2013-08-31,32,5658
Account Status,,2013-09-01,32,5667
Account Status,,2013-09-02,32,5672
Account Status,,2013-09-03,32,5687
Account Status,,2013-09-04,32,5694
Account Status,,2013-09-05,33,5701
Account Status,,2013-09-06,33,5707
Account Status,,2013-09-07,33,5711
Account Status,,2013-09-08,33,5715
Account Status,,2013-09-09,33,5729
Account Status,,2013-09-10,34,5737
Account Status,,2013-09-11,34,5750
Account Status,,2013-09-12,35,5752
Account Status,,2013-09-13,35,5763
Account Status,,2013-09-14,35,5769
Account Status,,2013-09-15,35,5775
Account Status,,2013-09-16,35,5783
Account Status,,2013-09-17,35,5793
Account Status,,2013-09-18,36,5801
Account Status,,2013-09-19,36,5805
Account Status,,2013-09-20,36,5810
Account Status,,2013-09-21,36,5814
Account Status,,2013-09-22,36,5817
Account Status,,2013-09-23,36,5825
Account Status,,2013-09-24,36,5836
Account Status,,2013-09-25,35,5853
Account Status,,2013-09-26,35,5865
Account Status,,2013-09-27,36,5872
Account Status,,2013-09-28,36,5875
Account Status,,2013-09-29,36,5879
Account Status,,2013-09-30,36,5887
Account Status,,2013-10-01,37,5894
Account Status,,2013-10-02,37,5904
Account Status,,2013-10-03,37,5917
Account Status,,2013-10-04,37,5929
Account Status,,2013-10-05,37,5930
Account Status,,2013-10-06,37,5936
Account Status,,2013-10-07,37,5948
Account Status,,2013-10-08,37,5962
Account Status,,2013-10-09,38,5974
Account Status,,2013-10-10,38,5981
Account Status,,2013-10-11,38,5991
Account Status,,2013-10-12,38,5992
Account Status,,2013-10-13,38,5995
Account Status,,2013-10-14,38,6003
Account Status,,2013-10-15,38,6013
Account Status,,2013-10-16,38,6020
Account Status,,2013-10-17,38,6031
Account Status,,2013-10-18,38,6040
Account Status,,2013-10-19,38,6044
Account Status,,2013-10-20,38,6051
Account Status,,2013-10-21,39,6057
Account Status,,2013-10-22,39,6064
Account Status,,2013-10-23,39,6076
Account Status,,2013-10-24,39,6089
Account Status,,2013-10-25,39,6097
Account Status,,2013-10-26,39,6102
Account Status,,2013-10-27,39,6107
Account Status,,2013-10-28,39,6116
Account Status,,2013-10-29,39,6136
Account Status,,2013-10-30,39,6146
Account Status,,2013-10-31,39,6157
Account Status,,2013-11-01,39,6163
Account Status,,2013-11-02,39,6168
Account Status,,2013-11-03,39,6173
Account Status,,2013-11-04,39,6187
Account Status,,2013-11-05,39,6199
Account Status,,2013-11-06,39,6208
Account Status,,2013-11-07,39,6219
Account Status,,2013-11-08,39,6229
Account Status,,2013-11-09,39,6235
Account Status,,2013-11-10,39,6239
Account Status,,2013-11-11,39,6250
Account Status,,2013-11-12,39,6268
Account Status,,2013-11-13,39,6281
Account Status,,2013-11-14,40,6291
Account Status,,2013-11-15,40,6300
Account Status,,2013-11-16,40,6305
Account Status,,2013-11-17,40,6307
Account Status,,2013-11-18,40,6317
Account Status,,2013-11-19,40,6333
Account Status,,2013-11-20,40,6344
Account Status,,2013-11-21,40,6357
Account Status,,2013-11-22,41,6365
Account Status,,2013-11-23,41,6368
Account Status,,2013-11-24,41,6371
Account Status,,2013-11-25,41,6380
Account Status,,2013-11-26,41,6392
Account Status,,2013-11-27,41,6391
Account Status,,2013-11-28,41,6401
Account Status,,2013-11-29,41,6408
Account Status,,2013-11-30,41,6414
Account Status,,2013-12-01,41,6417
Account Status,,2013-12-02,42,6422
Account Status,,2013-12-03,42,6434
Account Status,,2013-12-04,42,6448
Account Status,,2013-12-05,42,6460
Account Status,,2013-12-06,42,6465
Account Status,,2013-12-07,42,6472
Account Status,,2013-12-08,42,6477
Account Status,,2013-12-09,42,6490
Account Status,,2013-12-10,42,6497
Account Status,,2013-12-11,41,6506
Account Status,,2013-12-12,41,6513
Account Status,,2013-12-13,41,6521
Account Status,,2013-12-14,41,6525
Account Status,,2013-12-15,41,6527
Account Status,,2013-12-16,42,6536
Account Status,,2013-12-17,43,6543
Account Status,,2013-12-18,43,6549
Account Status,,2013-12-19,43,6558
Account Status,,2013-12-20,43,6555
Account Status,,2013-12-21,43,6556
Account Status,,2013-12-22,43,6559
Account Status,,2013-12-23,43,6564
Account Status,,2013-12-24,43,6567
Account Status,,2013-12-25,43,6568
Account Status,,2013-12-26,43,6573
Account Status,,2013-12-27,43,6580
Account Status,,2013-12-28,43,6583
Account Status,,2013-12-29,43,6590
Account Status,,2013-12-30,43,6594
Account Status,,2013-12-31,43,6595
Account Status,,2014-01-01,43,6596
Account Status,,2014-01-02,43,6617
Account Status,,2014-01-03,44,6627
Account Status,,2014-01-04,44,6630
Account Status,,2014-01-05,44,6635
Account Status,,2014-01-06,44,6644
Account Status,,2014-01-07,45,6656
Account Status,,2014-01-08,46,6667
Account Status,,2014-01-16,0,6685
